{
  "lastModified": "2015-02-25T06:30:43.052Z",
  "target": {
    "clientCode": "",
    "timeout": 5
  },
  "audienceManager": {
    "server": ""
  },
  "acquisition": {
    "server": "c00.adobe.com",
    "appid": "713139f524fa2dd193c674bf12cebc929573e960f5ada8142cb95341c8a8017e"
  },
  "analytics": {
    "rsids": "loyaltysolutions-iosdev",
    "server": "loyaltysolutions.sc.omtrdc.net",
    "ssl": false,
    "offlineEnabled": true,
    "charset": "UTF-8",
    "lifecycleTimeout": 300,
    "privacyDefault": "optedin",
    "batchLimit": 0,
    "timezone": "GMT+5.5",
    "timezoneOffset": 330,
    "referrerTimeout": 5,
    "poi": []
  },
  "messages": [],
  "remotes": {
    "analytics.poi": "https://assets.adobedtm.com/b213090c5204bf94318f4ef0539a38b487d10368/scripts/satellite-54eebd946237350019190200.json",
    "messages": "https://assets.adobedtm.com/b213090c5204bf94318f4ef0539a38b487d10368/scripts/satellite-54eebd9431356300166e0400.json"
  }
}