{
    "cordova-plugin-dialogs": {
        "source": {
            "type": "git",
            "url": "https://github.com/apache/cordova-plugin-dialogs",
            "subdir": "."
        },
        "is_top_level": true,
        "variables": {}
    },
    "com.wizardlogic.cordova.ios_keyboard": {
        "source": {
            "type": "git",
            "url": "https://github.com/mhweiner/CordovaiOSKeyboardPlugin",
            "subdir": "."
        },
        "is_top_level": true,
        "variables": {}
    },
    "cordova-plugin-device": {
        "source": {
            "type": "git",
            "url": "https://github.com/apache/cordova-plugin-device",
            "subdir": "."
        },
        "is_top_level": true,
        "variables": {}
    },
    "cordova-plugin-inappbrowser": {
        "source": {
            "type": "git",
            "url": "https://github.com/apache/cordova-plugin-inappbrowser",
            "subdir": "."
        },
        "is_top_level": true,
        "variables": {}
    },
    "cordova-plugin-geolocation": {
        "source": {
            "type": "git",
            "url": "https://git-wip-us.apache.org/repos/asf/cordova-plugin-geolocation.git",
            "subdir": "."
        },
        "is_top_level": true,
        "variables": {}
    },
    "org.chromium.zip": {
        "source": {
            "type": "git",
            "url": "https://github.com/Adobe-Marketing-Cloud/cordova-zip-plugin.git",
            "subdir": "."
        },
        "is_top_level": true,
        "variables": {}
    },
    "cordova-plugin-network-information": {
        "source": {
            "type": "git",
            "url": "https://github.com/apache/cordova-plugin-network-information",
            "subdir": "."
        },
        "is_top_level": true,
        "variables": {}
    },
    "cordova-plugin-file-transfer": {
        "source": {
            "type": "git",
            "url": "https://github.com/apache/cordova-plugin-file-transfer",
            "subdir": "."
        },
        "is_top_level": true,
        "variables": {}
    },
    "cordova-plugin-file": {
        "source": {
            "type": "git",
            "url": "https://github.com/apache/cordova-plugin-file",
            "subdir": "."
        },
        "is_top_level": true,
        "variables": {}
    },
    "cordova-plugin-globalization": {
        "source": {
            "type": "registry",
            "id": "cordova-plugin-globalization"
        },
        "is_top_level": false,
        "variables": {}
    },
    "cordova-plugin-compat": {
        "source": {
            "type": "registry",
            "id": "cordova-plugin-compat"
        },
        "is_top_level": false,
        "variables": {}
    },
    "cordova-plugin-whitelist": {
        "source": {
            "type": "registry",
            "id": "cordova-plugin-whitelist@1"
        },
        "is_top_level": true,
        "variables": {}
    },
    "es6-promise-plugin": {
        "source": {
            "type": "registry",
            "id": "es6-promise-plugin"
        },
        "is_top_level": false,
        "variables": {}
    },
    "adobe-mobile-services": {
        "source": {
            "type": "git",
            "url": "https://github.com/Adobe-Marketing-Cloud/mobile-services.git",
            "subdir": "."
        },
        "is_top_level": true,
        "variables": {}
    },
    "pushwoosh-cordova-plugin": {
        "source": {
            "type": "registry",
            "id": "pushwoosh-cordova-plugin@6.5.2"
        },
        "is_top_level": true,
        "variables": {}
    },
    "ionic-plugin-keyboard": {
        "source": {
            "type": "registry",
            "id": "ionic-plugin-keyboard@2.2.1"
        },
        "is_top_level": true,
        "variables": {}
    },
    "unomer-cordova-plugin": {
        "source": {
            "type": "local",
            "path": "/Volumes/MacintoshHD/Project_Structures/APPS/UNOMER_PLUGIN/v13_complete_working_unomer-cordova-plugin"
        },
        "is_top_level": true,
        "variables": {}
    },
    "cordova-plugin-google-analytics": {
        "source": {
            "type": "registry",
            "id": "cordova-plugin-google-analytics"
        },
        "is_top_level": true,
        "variables": {}
    },
    "cordova-plugin-facebook4": {
        "source": {
            "type": "registry",
            "id": "cordova-plugin-facebook4@1.7.4"
        },
        "is_top_level": true,
        "variables": {
            "APP_ID": "131812144103505",
            "APP_NAME": "PAYBACK"
        }
    },
    "com.phonegap.plugins.Flurry": {
        "source": {
            "type": "git",
            "url": "https://github.com/jfpsf/flurry-phonegap-plugin.git",
            "subdir": "."
        },
        "is_top_level": true,
        "variables": {}
    }
}