{
    "prepare_queue": {
        "installed": [],
        "uninstalled": []
    },
    "config_munge": {
        "files": {}
    },
    "installed_plugins": {
        "adobe-mobile-services": {
            "PACKAGE_NAME": "com.adobe.cq.mobile.payback"
        },
        "com.wizardlogic.cordova.ios_keyboard": {
            "PACKAGE_NAME": "com.adobe.cq.mobile.payback"
        },
        "cordova-plugin-device": {
            "PACKAGE_NAME": "com.adobe.cq.mobile.payback"
        },
        "cordova-plugin-dialogs": {
            "PACKAGE_NAME": "com.adobe.cq.mobile.payback"
        },
        "cordova-plugin-file": {
            "PACKAGE_NAME": "com.adobe.cq.mobile.payback"
        },
        "cordova-plugin-file-transfer": {
            "PACKAGE_NAME": "com.adobe.cq.mobile.payback"
        },
        "cordova-plugin-geolocation": {
            "GEOLOCATION_USAGE_DESCRIPTION": " ",
            "PACKAGE_NAME": "com.adobe.cq.mobile.payback"
        },
        "cordova-plugin-inappbrowser": {
            "PACKAGE_NAME": "com.adobe.cq.mobile.payback"
        },
        "cordova-plugin-network-information": {
            "PACKAGE_NAME": "com.adobe.cq.mobile.payback"
        },
        "cordova-plugin-whitelist": {
            "PACKAGE_NAME": "com.adobe.cq.mobile.payback"
        },
        "org.chromium.zip": {
            "PACKAGE_NAME": "com.adobe.cq.mobile.payback"
        },
        "pushwoosh-cordova-plugin": {
            "LOG_LEVEL": "DEBUG",
            "IOS_FOREGROUND_ALERT_TYPE": "NONE",
            "ANDROID_FOREGROUND_PUSH": "false",
            "PACKAGE_NAME": "com.adobe.cq.mobile.payback"
        },
        "ionic-plugin-keyboard": {
            "PACKAGE_NAME": "$(PRODUCT_BUNDLE_IDENTIFIER)"
        },
        "unomer-cordova-plugin": {
            "PACKAGE_NAME": "com.adobe.cq.mobile.payback"
        },
        "cordova-plugin-google-analytics": {
            "PACKAGE_NAME": "$(PRODUCT_BUNDLE_IDENTIFIER)"
        },
        "cordova-plugin-facebook4": {
            "APP_ID": "131812144103505",
            "APP_NAME": "PAYBACK",
            "PACKAGE_NAME": "com.adobe.cq.mobile.payback"
        },
        "com.phonegap.plugins.Flurry": {
            "PACKAGE_NAME": "com.adobe.cq.mobile.payback"
        }
    },
    "dependent_plugins": {
        "cordova-plugin-compat": {
            "PACKAGE_NAME": "com.adobe.cq.mobile.payback"
        }
    }
}