<?xml version="1.0"?>
<svg version="1.1" xmlns="http://www.w3.org/2000/svg" xmlns:xlink="http://www.w3.org/1999/xlink" width="30" height="30">
    <desc iVinci="yes" version="4.5" gridStep="20" showGrid="no" snapToGrid="no" codePlatform="0"/>
    <g id="Layer1" opacity="1">
        <g id="Shape1">
            <desc shapeID="1" type="0" basicInfo-basicType="4" basicInfo-roundedRectRadius="12" basicInfo-polygonSides="6" basicInfo-starPoints="5" bounding="rect(-3,-3,6,6)" text="" font-familyName="Helvetica" font-pixelSize="20" font-bold="0" font-underline="0" font-alignment="1" strokeStyle="0" markerStart="0" markerEnd="0" shadowEnabled="0" shadowOffsetX="0" shadowOffsetY="2" shadowBlur="4" shadowOpacity="160" blurEnabled="0" blurRadius="4" transform="matrix(0.958333,0,0,0.958333,15.125,15.125)" pers-center="0,0" pers-size="0,0" pers-start="0,0" pers-end="0,0" locked="0" mesh="" flag=""/>
            <path id="shapePath1" d="M12.25,15.125 C12.25,13.5372 13.5372,12.25 15.125,12.25 C16.7128,12.25 18,13.5372 18,15.125 C18,16.7128 16.7128,18 15.125,18 C13.5372,18 12.25,16.7128 12.25,15.125 Z" style="stroke:#ffffff;stroke-opacity:1;stroke-width:0.5;stroke-linejoin:miter;stroke-miterlimit:2;stroke-linecap:round;fill-rule:evenodd;fill:#ffffff;fill-opacity:1;"/>
        </g>
    </g>

        <g id="Shape2">
            <desc shapeID="2" type="0" basicInfo-basicType="4" basicInfo-roundedRectRadius="12" basicInfo-polygonSides="6" basicInfo-starPoints="5" bounding="rect(-3,-3,6,6)" text="" font-familyName="Helvetica" font-pixelSize="20" font-bold="0" font-underline="0" font-alignment="1" strokeStyle="0" markerStart="0" markerEnd="0" shadowEnabled="0" shadowOffsetX="0" shadowOffsetY="2" shadowBlur="4" shadowOpacity="160" blurEnabled="0" blurRadius="4" transform="matrix(0.958333,0,0,0.958333,8.0625,8.0625)" pers-center="0,0" pers-size="0,0" pers-start="0,0" pers-end="0,0" locked="0" mesh="" flag=""/>
            <path id="shapePath2" d="M5.1875,8.0625 C5.1875,6.47468 6.47468,5.1875 8.0625,5.1875 C9.65032,5.1875 10.9375,6.47468 10.9375,8.0625 C10.9375,9.65032 9.65032,10.9375 8.0625,10.9375 C6.47468,10.9375 5.1875,9.65032 5.1875,8.0625 Z" style="stroke:#ffffff;stroke-opacity:1;stroke-width:0.5;stroke-linejoin:miter;stroke-miterlimit:2;stroke-linecap:round;fill:none;">

<animate attributeType="CSS" attributeName="opacity" from="0" to="1" begin = ".1" dur="1s" repeatCount="indefinite" />

</path>



    </g>

        <g id="Shape3">
            <desc shapeID="3" type="0" basicInfo-basicType="4" basicInfo-roundedRectRadius="12" basicInfo-polygonSides="6" basicInfo-starPoints="5" bounding="rect(-3,-3,6,6)" text="" font-familyName="Helvetica" font-pixelSize="20" font-bold="0" font-underline="0" font-alignment="1" strokeStyle="0" markerStart="0" markerEnd="0" shadowEnabled="0" shadowOffsetX="0" shadowOffsetY="2" shadowBlur="4" shadowOpacity="160" blurEnabled="0" blurRadius="4" transform="matrix(0.958333,0,0,0.958333,15.125,8)" pers-center="0,0" pers-size="0,0" pers-start="0,0" pers-end="0,0" locked="0" mesh="" flag=""/>
            <path id="shapePath3" d="M12.25,8 C12.25,6.41218 13.5372,5.125 15.125,5.125 C16.7128,5.125 18,6.41218 18,8 C18,9.58782 16.7128,10.875 15.125,10.875 C13.5372,10.875 12.25,9.58782 12.25,8 Z" style="stroke:#ffffff;stroke-opacity:1;stroke-width:0.5;stroke-linejoin:miter;stroke-miterlimit:2;stroke-linecap:round;fill:none;">

<animate attributeType="CSS" attributeName="opacity" from="0" to="1" begin = ".2" dur="1s" repeatCount="indefinite" />

</path>



    </g>
    <g id="Layer4" opacity="1">
        <g id="Shape4">
            <desc shapeID="4" type="0" basicInfo-basicType="4" basicInfo-roundedRectRadius="12" basicInfo-polygonSides="6" basicInfo-starPoints="5" bounding="rect(-3,-3,6,6)" text="" font-familyName="Helvetica" font-pixelSize="20" font-bold="0" font-underline="0" font-alignment="1" strokeStyle="0" markerStart="0" markerEnd="0" shadowEnabled="0" shadowOffsetX="0" shadowOffsetY="2" shadowBlur="4" shadowOpacity="160" blurEnabled="0" blurRadius="4" transform="matrix(0.958333,0,0,0.958333,22.25,8.00001)" pers-center="0,0" pers-size="0,0" pers-start="0,0" pers-end="0,0" locked="0" mesh="" flag=""/>
            <path id="shapePath4" d="M19.375,8.00001 C19.375,6.41219 20.6622,5.12501 22.25,5.12501 C23.8378,5.12501 25.125,6.41219 25.125,8.00001 C25.125,9.58783 23.8378,10.875 22.25,10.875 C20.6622,10.875 19.375,9.58783 19.375,8.00001 Z" style="stroke:#ffffff;stroke-opacity:1;stroke-width:0.5;stroke-linejoin:miter;stroke-miterlimit:2;stroke-linecap:round;fill-rule:evenodd;fill:#ffffff;fill-opacity:1;">

<animate attributeType="CSS" attributeName="opacity" from="0" to="1" begin = ".3" dur="1s" repeatCount="indefinite" />

</path>


        </g>
    </g>
    <g id="Layer5" opacity="1">
        <g id="Shape5">
            <desc shapeID="5" type="0" basicInfo-basicType="4" basicInfo-roundedRectRadius="12" basicInfo-polygonSides="6" basicInfo-starPoints="5" bounding="rect(-3,-3,6,6)" text="" font-familyName="Helvetica" font-pixelSize="20" font-bold="0" font-underline="0" font-alignment="1" strokeStyle="0" markerStart="0" markerEnd="0" shadowEnabled="0" shadowOffsetX="0" shadowOffsetY="2" shadowBlur="4" shadowOpacity="160" blurEnabled="0" blurRadius="4" transform="matrix(0.958333,0,0,0.958333,22.25,15.125)" pers-center="0,0" pers-size="0,0" pers-start="0,0" pers-end="0,0" locked="0" mesh="" flag=""/>
            <path id="shapePath5" d="M19.375,15.125 C19.375,13.5372 20.6622,12.25 22.25,12.25 C23.8378,12.25 25.125,13.5372 25.125,15.125 C25.125,16.7128 23.8378,18 22.25,18 C20.6622,18 19.375,16.7128 19.375,15.125 Z" style="stroke:#ffffff;stroke-opacity:1;stroke-width:0.5;stroke-linejoin:miter;stroke-miterlimit:2;stroke-linecap:round;fill-rule:evenodd;fill:#ffffff;fill-opacity:1;">

<animate attributeType="CSS" attributeName="opacity" from="0" to="1" begin = ".4" dur="1s" repeatCount="indefinite" />

</path>


        </g>
    </g>
    <g id="Layer6" opacity="1">
        <g id="Shape6">
            <desc shapeID="6" type="0" basicInfo-basicType="4" basicInfo-roundedRectRadius="12" basicInfo-polygonSides="6" basicInfo-starPoints="5" bounding="rect(-3,-3,6,6)" text="" font-familyName="Helvetica" font-pixelSize="20" font-bold="0" font-underline="0" font-alignment="1" strokeStyle="0" markerStart="0" markerEnd="0" shadowEnabled="0" shadowOffsetX="0" shadowOffsetY="2" shadowBlur="4" shadowOpacity="160" blurEnabled="0" blurRadius="4" transform="matrix(0.958333,0,0,0.958333,22.1104,22.2332)" pers-center="0,0" pers-size="0,0" pers-start="0,0" pers-end="0,0" locked="0" mesh="" flag=""/>
            <path id="shapePath6" d="M19.2354,22.2332 C19.2354,20.6454 20.5225,19.3582 22.1104,19.3582 C23.6982,19.3582 24.9854,20.6454 24.9854,22.2332 C24.9854,23.821 23.6982,25.1082 22.1104,25.1082 C20.5225,25.1082 19.2354,23.821 19.2354,22.2332 Z" style="stroke:#ffffff;stroke-opacity:1;stroke-width:0.5;stroke-linejoin:miter;stroke-miterlimit:2;stroke-linecap:round;fill-rule:evenodd;fill:#ffffff;fill-opacity:1;">

<animate attributeType="CSS" attributeName="opacity" from="0" to="1" begin = ".5" dur="1s" repeatCount="indefinite" />

</path>


        </g>
    </g>
    <g id="Layer7" opacity="1">
        <g id="Shape7">
            <desc shapeID="7" type="0" basicInfo-basicType="4" basicInfo-roundedRectRadius="12" basicInfo-polygonSides="6" basicInfo-starPoints="5" bounding="rect(-3,-3,6,6)" text="" font-familyName="Helvetica" font-pixelSize="20" font-bold="0" font-underline="0" font-alignment="1" strokeStyle="0" markerStart="0" markerEnd="0" shadowEnabled="0" shadowOffsetX="0" shadowOffsetY="2" shadowBlur="4" shadowOpacity="160" blurEnabled="0" blurRadius="4" transform="matrix(0.958333,0,0,0.958333,15,22.2564)" pers-center="0,0" pers-size="0,0" pers-start="0,0" pers-end="0,0" locked="0" mesh="" flag=""/>
            <path id="shapePath7" d="M12.125,22.2564 C12.125,20.6686 13.4122,19.3814 15,19.3814 C16.5878,19.3814 17.875,20.6686 17.875,22.2564 C17.875,23.8443 16.5878,25.1314 15,25.1314 C13.4122,25.1314 12.125,23.8443 12.125,22.2564 Z" style="stroke:#ffffff;stroke-opacity:1;stroke-width:0.5;stroke-linejoin:miter;stroke-miterlimit:2;stroke-linecap:round;fill:none;">

<animate attributeType="CSS" attributeName="opacity" from="0" to="1" begin = ".6" dur="1s" repeatCount="indefinite" />

</path>

      </g>
    </g>
    <g id="Layer8" opacity="1">
        <g id="Shape8">
            <desc shapeID="8" type="0" basicInfo-basicType="4" basicInfo-roundedRectRadius="12" basicInfo-polygonSides="6" basicInfo-starPoints="5" bounding="rect(-3,-3,6,6)" text="" font-familyName="Helvetica" font-pixelSize="20" font-bold="0" font-underline="0" font-alignment="1" strokeStyle="0" markerStart="0" markerEnd="0" shadowEnabled="0" shadowOffsetX="0" shadowOffsetY="2" shadowBlur="4" shadowOpacity="160" blurEnabled="0" blurRadius="4" transform="matrix(0.958333,0,0,0.958333,8.10713,22.2332)" pers-center="0,0" pers-size="0,0" pers-start="0,0" pers-end="0,0" locked="0" mesh="" flag=""/>
            <path id="shapePath8" d="M5.23213,22.2332 C5.23213,20.6454 6.51931,19.3582 8.10713,19.3582 C9.69495,19.3582 10.9821,20.6454 10.9821,22.2332 C10.9821,23.821 9.69495,25.1082 8.10713,25.1082 C6.51931,25.1082 5.23213,23.821 5.23213,22.2332 Z" style="stroke:#ffffff;stroke-opacity:1;stroke-width:0.5;stroke-linejoin:miter;stroke-miterlimit:2;stroke-linecap:round;fill:none;">

<animate attributeType="CSS" attributeName="opacity" from="0" to="1" begin = ".7" dur="1s" repeatCount="indefinite" />

</path>

        </g>
    </g>
    <g id="Layer9" opacity="1">
        <g id="Shape9">
            <desc shapeID="9" type="0" basicInfo-basicType="4" basicInfo-roundedRectRadius="12" basicInfo-polygonSides="6" basicInfo-starPoints="5" bounding="rect(-3,-3,6,6)" text="" font-familyName="Helvetica" font-pixelSize="20" font-bold="0" font-underline="0" font-alignment="1" strokeStyle="0" markerStart="0" markerEnd="0" shadowEnabled="0" shadowOffsetX="0" shadowOffsetY="2" shadowBlur="4" shadowOpacity="160" blurEnabled="0" blurRadius="4" transform="matrix(0.958333,0,0,0.958333,7.9843,15.1087)" pers-center="0,0" pers-size="0,0" pers-start="0,0" pers-end="0,0" locked="0" mesh="" flag=""/>
            <path id="shapePath9" d="M5.1093,15.1087 C5.1093,13.5209 6.39648,12.2337 7.9843,12.2337 C9.57212,12.2337 10.8593,13.5209 10.8593,15.1087 C10.8593,16.6966 9.57212,17.9837 7.9843,17.9837 C6.39648,17.9837 5.1093,16.6966 5.1093,15.1087 Z" style="stroke:#ffffff;stroke-opacity:1;stroke-width:0.5;stroke-linejoin:miter;stroke-miterlimit:2;stroke-linecap:round;fill:none;">

<animate attributeType="CSS" attributeName="opacity" from="0" to="1" begin = ".8" dur="1s" repeatCount="indefinite" />

</path>

        </g>
    </g>
</svg>
